{
    "count": 100,
    "next": "https://pokeapi.co/api/v2/pokemon?offset=25&limit=25",
    "previous": null,
    "results": [
        {
            "name": "abc",
            "url": "https://pokeapi.co/api/v2/pokemon/1/"
        },
        {
            "name": "abc",
            "url": "https://pokeapi.co/api/v2/pokemon/1/"
        },
        {
            "name": "abc",
            "url": "https://pokeapi.co/api/v2/pokemon/1/"
        },
        {
            "name": "abc",
            "url": "https://pokeapi.co/api/v2/pokemon/1/"
        },
        {
            "name": "abc",
            "url": "https://pokeapi.co/api/v2/pokemon/1/"
        },
        {
            "name": "abc",
            "url": "https://pokeapi.co/api/v2/pokemon/1/"
        },
        {
            "name": "abc",
            "url": "https://pokeapi.co/api/v2/pokemon/1/"
        },
        {
            "name": "abc",
            "url": "https://pokeapi.co/api/v2/pokemon/1/"
        },
        {
            "name": "abc",
            "url": "https://pokeapi.co/api/v2/pokemon/1/"
        },
        {
            "name": "abc",
            "url": "https://pokeapi.co/api/v2/pokemon/1/"
        },
        {
            "name": "abc",
            "url": "https://pokeapi.co/api/v2/pokemon/1/"
        },
        {
            "name": "abc",
            "url": "https://pokeapi.co/api/v2/pokemon/1/"
        },
        {
            "name": "abc",
            "url": "https://pokeapi.co/api/v2/pokemon/1/"
        },
        {
            "name": "abc",
            "url": "https://pokeapi.co/api/v2/pokemon/1/"
        },
        {
            "name": "abc",
            "url": "https://pokeapi.co/api/v2/pokemon/1/"
        },
        {
            "name": "abc",
            "url": "https://pokeapi.co/api/v2/pokemon/1/"
        },
        {
            "name": "abc",
            "url": "https://pokeapi.co/api/v2/pokemon/1/"
        },
        {
            "name": "abc",
            "url": "https://pokeapi.co/api/v2/pokemon/1/"
        },
        {
            "name": "abc",
            "url": "https://pokeapi.co/api/v2/pokemon/1/"
        },
        {
            "name": "abc",
            "url": "https://pokeapi.co/api/v2/pokemon/1/"
        },
        {
            "name": "abc",
            "url": "https://pokeapi.co/api/v2/pokemon/1/"
        },
        {
            "name": "abc",
            "url": "https://pokeapi.co/api/v2/pokemon/1/"
        },
        {
            "name": "abc",
            "url": "https://pokeapi.co/api/v2/pokemon/1/"
        },
        {
            "name": "abc",
            "url": "https://pokeapi.co/api/v2/pokemon/1/"
        },
        {
            "name": "abc",
            "url": "https://pokeapi.co/api/v2/pokemon/1/"
        },

    ]
}
